24/11/2017 08:57:44:AM[Error] (1-errorcode=12170 2-errorMessage=ORA-12170: TNS:Connect timeout occurred 3-0 4- ) 
24/11/2017 08:58:05:AM[Error] (1-errorcode=12170 2-errorMessage=ORA-12170: TNS:Connect timeout occurred 3-0 4- ) 
24/11/2017 08:58:40:AM[Error] (1-errorcode=12170 2-errorMessage=ORA-12170: TNS:Connect timeout occurred 3-0 4- ) 
24/11/2017 08:59:01:AM[Error] (1-errorcode=12170 2-errorMessage=ORA-12170: TNS:Connect timeout occurred 3-0 4- ) 
24/11/2017 08:59:08:AM[Error] (1-errorcode=12170 2-errorMessage=ORA-12170: TNS:Connect timeout occurred 3-0 4- ) 
24/11/2017 08:59:29:AM[Error] (1-errorcode=12170 2-errorMessage=ORA-12170: TNS:Connect timeout occurred 3-0 4- ) 
24/11/2017 08:59:40:AM[Error] (1-errorcode=12170 2-errorMessage=ORA-12170: TNS:Connect timeout occurred 3-0 4- ) 
24/11/2017 09:00:02:AM[Error] (1-errorcode=12170 2-errorMessage=ORA-12170: TNS:Connect timeout occurred 3-0 4- ) 
24/11/2017 09:08:45:AM[Error] (1-errorcode=12170 2-errorMessage=ORA-12170: TNS:Connect timeout occurred 3-0 4- ) 
24/11/2017 09:09:06:AM[Error] (1-errorcode=12170 2-errorMessage=ORA-12170: TNS:Connect timeout occurred 3-0 4- ) 
24/11/2017 09:10:56:AM[Error] (1-errorcode=12170 2-errorMessage=ORA-12170: TNS:Connect timeout occurred 3-0 4- ) 
24/11/2017 09:11:17:AM[Error] (1-errorcode=12170 2-errorMessage=ORA-12170: TNS:Connect timeout occurred 3-0 4- ) 
24/11/2017 09:12:25:AM[Error] (1-errorcode=12170 2-errorMessage=ORA-12170: TNS:Connect timeout occurred 3-0 4- ) 
24/11/2017 09:12:46:AM[Error] (1-errorcode=12170 2-errorMessage=ORA-12170: TNS:Connect timeout occurred 3-0 4- ) 
24/11/2017 09:14:27:AM[Error] (1-errorcode=12170 2-errorMessage=ORA-12170: TNS:Connect timeout occurred 3-0 4- ) 
24/11/2017 09:14:48:AM[Error] (1-errorcode=12170 2-errorMessage=ORA-12170: TNS:Connect timeout occurred 3-0 4- ) 
