Response, getClaimData 04-Aug-2017 10:21:17 AM, , {"response_status":"ERROR","response_message":"TPACD0000: Connection could not be established.<\/br>","data":null}

Response, getNetworkData 04-Aug-2017 03:01:06 PM, , {"response_status":"ERROR","response_message":"TPACD0000: Connection could not be established.<\/br>","data":null}

Response, getClaimData 04-Aug-2017 03:01:07 PM, , {"response_status":"ERROR","response_message":"TPACD0000: Connection could not be established.<\/br>","data":null}

Response, getClaimData 04-Aug-2017 03:09:58 PM, , {"response_status":"ERROR","response_message":"TPACD0000: Connection could not be established.<\/br>","data":null}

Response, getClaimData 04-Aug-2017 03:16:47 PM, , {"response_status":"ERROR","response_message":"TPACD0000: Connection could not be established.<\/br>","data":null}

Response, getClaimData 04-Aug-2017 03:59:00 PM, , {"response_status":"ERROR","response_message":"TPACD0000: Connection could not be established.<\/br>","data":null}

