Request, getEcardURL 22-May-2017 06:14:06 PM, 110.227.254.242, {"username":"marsh", "password" :"xQ9ouAZIcyuI", "policy_number" :"10085005", "employee_number" :"678998    " }

Response, getEcardURL 22-May-2017 06:14:06 PM, 110.227.254.242, {"response_status":"SUCCESS","response_message":"Ecard url generated successfully.<\/br>","data":"https:\/\/uat-my.religarehealthinsurance.com\/e-cards\/7V6LMyE6Gh9e-WucS4NIRi3WL1ZHhXk-s48es1ItVI8=\/5f67cfd6f295cde08cfaf72969e02f46.pdf"}

Request, getNetworkData 22-May-2017 07:06:39 PM, 110.227.254.242, {"username":"marsh", "password" :"xQ9ouAZIcyuI", "count":"True",  "start_index" :"0", "endendex" :"0" }

Response, getNetworkData 22-May-2017 07:06:39 PM, 110.227.254.242, {"response_status":"SUCCESS","response_message":"Data found according to your request.<\/br>","data":6}

Request, getNetworkData 22-May-2017 07:15:25 PM, 110.227.254.242, {"username":"marsh", "password" :"xQ9ouAZIcyuI", "count":"True",  "start_index" :"0", "endendex" :"0" }

Response, getNetworkData 22-May-2017 07:15:25 PM, 110.227.254.242, {"response_status":"SUCCESS","response_message":"Data found according to your request.<\/br>","data":6}

Request, getNetworkData 22-May-2017 07:22:47 PM, 110.227.254.242, {"username":"marsh", "password" :"xQ9ouAZIcyuI", "count":"True",  "start_index" :"0", "endendex" :"0" }

Response, getNetworkData 22-May-2017 07:22:47 PM, 110.227.254.242, {"response_status":"SUCCESS","response_message":"Data found according to your request.<\/br>","data":6}

Request, getNetworkData 22-May-2017 07:47:51 PM, 110.227.254.242, {"username":"marsh", "password" :"xQ9ouAZIcyuI", "count":"True",  "start_index" :"0", "endendex" :"0" }

Response, getNetworkData 22-May-2017 07:47:51 PM, 110.227.254.242, {"response_status":"SUCCESS","response_message":"Data found according to your request.<\/br>","data":6}

Request, getNetworkData 22-May-2017 07:47:51 PM, 110.227.254.242, {"username":"marsh", "password" :"xQ9ouAZIcyuI", "count":"True",  "start_index" :"0", "endendex" :"0" }

Response, getNetworkData 22-May-2017 07:47:51 PM, 110.227.254.242, {"response_status":"SUCCESS","response_message":"Data found according to your request.<\/br>","data":6}

Request, getNetworkData 22-May-2017 07:47:51 PM, 110.227.254.242, {"username":"marsh", "password" :"xQ9ouAZIcyuI", "count":"True",  "start_index" :"0", "endendex" :"0" }

Response, getNetworkData 22-May-2017 07:47:51 PM, 110.227.254.242, {"response_status":"SUCCESS","response_message":"Data found according to your request.<\/br>","data":6}

