Request, getClaimData 24-Aug-2017 10:47:43 AM, 110.227.254.242, {"username":"marsh", "password" :"xQ9ouAZIcyuI", "policy_number" :"10077792", "from_date" :"23/08/2017 15:20", "to_date" :"24/08/2017 10:41" }

Response, getClaimData 24-Aug-2017 10:47:43 AM, 110.227.254.242, {"response_status":"ERROR","response_message":"TPACD0008: No records founds according to your request.<\/br>","data":[]}

Request, getClaimData 24-Aug-2017 11:42:31 AM, 110.227.254.242, {"username":"marsh", "password" :"xQ9ouAZIcyuI", "policy_number" :"10077792", "from_date" :"23/08/2017 15:20", "to_date" :"24/08/2017 11:36" }

Response, getClaimData 24-Aug-2017 11:42:31 AM, 110.227.254.242, {"response_status":"ERROR","response_message":"TPACD0008: No records founds according to your request.<\/br>","data":[]}

