Request, getClaimData 05-Jun-2017 02:05:26 PM, 110.227.254.242, {"username":"marsh", "password" :"xQ9ouAZIcyuI", "policy_number" :"10072066", "from_date" :"31/05/2017 18:57", "to_date" :"05/06/2017 14:06" }

Response, getClaimData 05-Jun-2017 02:05:26 PM, 110.227.254.242, {"response_status":"ERROR","response_message":"TPACD0008: No records founds according to your request.<\/br>","data":[]}

Request, getClaimData 05-Jun-2017 02:08:06 PM, 110.227.254.242, {"username":"marsh", "password" :"xQ9ouAZIcyuI", "policy_number" :"10072066", "from_date" :"31/05/2017 18:57", "to_date" :"05/06/2017 14:09" }

Response, getClaimData 05-Jun-2017 02:08:06 PM, 110.227.254.242, {"response_status":"ERROR","response_message":"TPACD0008: No records founds according to your request.<\/br>","data":[]}

